verilog/combo_waveform.vcd
$date
	Sun Mar 01 11:39:17 2026
$end
$version
	Icarus Verilog
$end
$timescale
	1s
$end
$scope module tb $end
$var wire 1 ! out $end
$var reg 1 " a $end
$var reg 1 # b $end
$var reg 1 $ c $end
$scope module uut $end
$var wire 1 " a $end
$var wire 1 % and_out $end
$var wire 1 # b $end
$var wire 1 $ c $end
$var wire 1 & or_out $end
$var wire 1 ! out $end
$var wire 1 ' xor_out $end
$upscope $end
$upscope $end
$enddefinitions $end
$comment Show the parameter values. $end
$dumpall
$end
#0
$dumpvars
0'
0&
0%
0$
0#
0"
0!
$end
#10
0!
1&
1'
1$
#20
1!
0'
0$
1#
#30
0!
1'
1$
#40
1!
0&
0$
0#
1"
#50
1!
1&
0'
1$
#60
0!
1'
1%
0$
1#
#70
1!
0'
1$
